{
    "openapi": "3.0.0",
    "info": {
        "title": "Test API",
        "version": "0.1"
    },
    "paths": {
        "/api/auth/login": {
            "post": {
                "tags": [
                    "Auth"
                ],
                "summary": "Login",
                "description": "Login and get token",
                "responses": {
                    "200": {
                        "description": "OK"
                    }
                }
            }
        },
        "/api/products": {
            "get": {
                "tags": [
                    "Products"
                ],
                "summary": "Get list of products",
                "description": "Returns list of products",
                "operationId": "844d1dca0b799d062442400b37e72dcf",
                "responses": {
                    "200": {
                        "description": "OK"
                    }
                }
            }
        }
    },
    "security": [
        []
    ]
}